…
11 VI                   1
12 VT                   1
13 Z                    1
> write.csv(statewiseNUmberOfStores, file = "final-project/statewiseNUmberOfStores.csv", row.names=FALSE)
> 
> #11.	Non Performing stores - If there is need to minimize the losses, then which stores ABC pharmacy should be closing? 
> #(Note: Stores with least sales revenue can be closed)
> # 1. Stores with no sales revenue
> nonPerfPharmacyStores <- PHRMCY_MASTER %>%
+   left_join(POS_TRANS, by = 'PHRMCY_NBR') %>%
+   group_by(PHRMCY_NBR, PHRMCY_NAM, ST_CD) %>%
+   summarise(PHRMCY_NBR_SALES_REVENUE = sum(SLS_QTY * EXT_SLS_AMT)) %>%
+   filter(is.na(PHRMCY_NBR_SALES_REVENUE))
> nonPerfPharmacyStores
# A tibble: 991 x 4
# Groups:   PHRMCY_NBR, PHRMCY_NAM [991]
   PHRMCY_NBR          PHRMCY_NAM       ST_CD PHRMCY_NBR_SALES_REVENUE
   <chr>               <chr>            <chr>                    <dbl>
 1 1017330163607345979 GNP PHARMACY #1  NJ                          NA
 2 1041420479647471411 GNP PHARMACY #2  NJ                          NA
 3 1048827871928328746 GNP PHARMACY #3  MA                          NA
 4 1057348283119436343 GNP PHARMACY #4  NJ                          NA
 5 1058510257734865632 GNP PHARMACY #5  NY                          NA
 6 1081439579592602433 GNP PHARMACY #6  MA                          NA
 7 1092260723523702002 GNP PHARMACY #9  NJ                          NA
 8 1121291098695239882 GNP PHARMACY #10 NJ                          NA
 9 1127802158199509414 GNP PHARMACY #11 NJ                          NA
10 1138751154350733720 GNP PHARMACY #13 NJ                          NA
# ... with 981 more rows
…
 9 PR                         97
10 RI                          3
11 VI                          1
12 VT                          1
13 Z                           1
> write.csv(nonPerfPharmacyStoresStatewise, file = "final-project/nonPerfPharmacyStoresStatewise.csv", row.names=FALSE)
> 
> # 10 stores which have revenue of less than 10K, 
> nonPerfPharmacyStoresByMinRev <- PHRMCY_MASTER %>%
+   left_join(POS_TRANS, by = 'PHRMCY_NBR') %>%
+   group_by(PHRMCY_NBR, PHRMCY_NAM) %>%
+   summarise(PHRMCY_NBR_SALES_REVENUE = sum(SLS_QTY * EXT_SLS_AMT)) %>%
+   arrange(PHRMCY_NBR_SALES_REVENUE)
> nonPerfPharmacyStoresByMinRev
# A tibble: 1,097 x 3
# Groups:   PHRMCY_NBR [1,097]
   PHRMCY_NBR          PHRMCY_NAM         PHRMCY_NBR_SALES_REVENUE
   <chr>               <chr>                                 <dbl>
 1 2109913237959930897 GNP PHARMACY #150                      100 
 2 1864727887909581358 GNP PHARMACY #116                      152.
 3 2557779967183367219 GNP PHARMACY #211                      261.
 4 7352666603740569574 GNP PHARMACY #835                      611.
 5 767790889581973829  GNP PHARMACY #881                     1075.
 6 4474219946559825502 GNP PHARMACY #458                     2101.
 7 7020056645499029586 GNP PHARMACY #800                     2421.
 8 8932873020424827010 GNP PHARMACY #1053                    3325.
 9 6456621789121903095 GNP PHARMACY #725                     4921.
10 8146743720163240233 GNP PHARMACY #942                     6316.
# ... with 1,087 more rows
> write.csv(nonPerfPharmacyStoresByMinRev, file = "final-project/nonPerfPharmacyStoresByMinRev.csv", row.names=FALSE)
> 
> 
> #12.	For any particular store which product generates maximum revenue? 
> #4416100399456673861
> #Top Perfroming Products
> maxRevenueGeneratorProductForStore <- POS_TRANS %>%
+   inner_join(PROD_MASTER, by = 'PROD_NBR') %>%  
+   filter(PHRMCY_NBR == '4416100399456673861') %>%
+   group_by(PROD_NBR, PROD_DESC) %>%
+   summarise(salesRevenueBYProduct = sum(SLS_QTY * EXT_SLS_AMT)) %>%
+   arrange(desc(salesRevenueBYProduct))
> maxRevenueGeneratorProductForStore  
# A tibble: 1,577 x 3
# Groups:   PROD_NBR [1,577]
   PROD_NBR                PROD_DESC              salesRevenueBYProduct
   <chr>                   <chr>                                  <dbl>
 1 99100000770330000000003 MONEY ORDER                         1662010.
 2 99100000234116000000009 MONEYGRAM                            263872.
 3 1820025008              01820025008                           34315.
 4 99100000081989000000040 STAMPS                                18392.
 5 99100000179742000000050 SYRINGE & NEEDLE                      13510.
 6 30087510191             TYROS 1 INFANT FORMULA                11050 
 7 99100000120141000000010 CANDY & BEVERAGE                      10921.
 8 2610000573              NEWPORT 100'S                         10624.
 9 1820025002              NAT LT 15PK 25OZ CAN                   7480.
10 99100000643311000000027 CELL CARDS                             6295.
# ... with 1,567 more rows
…
4 2016     Apr       04                361776.
5 2016     May       05                306808.
6 2016     Jun       06                311950.
> write.csv(monthOnMonthSalesRevenueForStore, file = "final-project/monthOnMonthSalesRevenueForStore.csv", row.names=FALSE)
> 
> 
> # Sales Revenue By Product Segments 
> salesRevenueByProductSegments <- POS_TRANS %>%
+   inner_join(PROD_MASTER, by = 'PROD_NBR') %>%  
+   inner_join(PROD_SEG, by = c("SEGMENT_CD" = "SEG_CD")) %>%
+   group_by(SEGMENT_CD, SEG_DESC) %>%
+   summarise(salesRevenue = sum(SLS_QTY * EXT_SLS_AMT)) %>%
+   arrange(desc(salesRevenue))
> salesRevenueByProductSegments
# A tibble: 808 x 3
# Groups:   SEGMENT_CD [808]
   SEGMENT_CD   SEG_DESC                                    salesRevenue
   <chr>        <chr>                                              <dbl>
 1 630063406341 MONEY ORDERS & WESTERN UNION                    1931231.
 2 630063206321 LOTTERY                                         1576608.
 3 930093909391 MISC HOME HEALTH CARE                            806452.
 4 410041704171 MISC VITAMINS                                    771143.
 5 270027102711 HEEL & ARCH                                      755943.
 6 630063506351 GIFT CARDS                                       563275.
 7 710071107111 BRAND                                            561298.
 8 930093309335 WALKERS & ROLLATORS                              487506.
 9 530053105311 CANDY                                            398110.
10 580058505859 ALL OTHER GREETING CARD LINES MISCELLANEOUS      385823.
# ... with 798 more rows
> write.csv(salesRevenueByProductSegments, file = "final-project/salesRevenueByProductSegments.csv", row.names=FALSE)
> 
> # Sales Revenue By Product Sub Categories
> salesRevenueByProductSubCat <- POS_TRANS %>%
+   inner_join(PROD_MASTER, by = 'PROD_NBR') %>%  
+   inner_join(PROD_SEG, by = c("SEGMENT_CD" = "SEG_CD")) %>%
+   inner_join(PROD_SUB_CAT, by = c("SUB_CAT_CD" = "SUB_CAT_CD")) %>%
+   group_by(SUB_CAT_CD, SUB_CAT_DESC) %>%
+   summarise(salesRevenue = sum(SLS_QTY * EXT_SLS_AMT)) %>%
+   arrange(desc(salesRevenue))
> salesRevenueByProductSubCat 
# A tibble: 218 x 3
# Groups:   SUB_CAT_CD [218]
   SUB_CAT_CD SUB_CAT_DESC                  salesRevenue
   <chr>      <chr>                                <dbl>
 1 63006340   MONEY ORDERS & WESTERN UNION      1931231.
 2 63006320   LOTTERY                           1576608.
 3 58005850   ALL OTHER GREETING CARD LINES     1013996.
 4 93009390   MISC HOME HEALTH CARE              806452.
 5 41004170   MISC VITAMINS                      771143.
 6 27002710   SHOE INSOLES & INSERTS             771129.
 7 71007110   CIGARETTES                         677874.
 8 63006350   GIFT CARDS                         563275.
 9 93009330   WALKING AIDS                       520048.
10 53005310   CANDY, MINTS & GUM                 420930.
# ... with 208 more rows
> write.csv(salesRevenueByProductSubCat, file = "final-project/salesRevenueByProductSubCat.csv", row.names=FALSE)
> 
> # Sales Revenue By Product Categories
> salesRevenueByProductCat <- POS_TRANS %>%
+   inner_join(PROD_MASTER, by = 'PROD_NBR') %>%  
+   inner_join(PROD_SEG, by = c("SEGMENT_CD" = "SEG_CD")) %>%
+   inner_join(PROD_SUB_CAT, by = c("SUB_CAT_CD" = "SUB_CAT_CD")) %>%
+   inner_join(PROD_CAT, by = c("CAT_CD" = "CAT_CD")) %>%
+   group_by(CAT_CD, CAT_DESC) %>%
+   summarise(salesRevenue = sum(SLS_QTY * EXT_SLS_AMT)) %>%
+   arrange(desc(salesRevenue))
> salesRevenueByProductCat
# A tibble: 57 x 3
# Groups:   CAT_CD [57]
   CAT_CD CAT_DESC                                             salesRevenue
   <chr>  <chr>                                                       <dbl>
 1 6300   MISC GENERAL MERCHANDISE                                 4217513.
 2 4100   VITAMINS/DIETARY SUPPLEMENTS                             1471810.
 3 9300   HOME HEALTH CARE                                         1404232.
 4 0700   COLD & ALLERGY                                           1190806.
 5 5800   GREETING CARDS & OTHER ASSOCIATED MANUFACTURER ITEMS     1115705.
 6 2700   FOOT CARE                                                 849666.
 7 0300   DIGESTIVE HEALTH                                          812347.
 8 7100   TOBACCO                                                   679205.
 9 2500   FIRST AID                                                 666279.
10 0100   PAIN RELIEF                                               569156.
# ... with 47 more rows
> write.csv(salesRevenueByProductCat, file = "final-project/salesRevenueByProductCat.csv", row.names=FALSE)
> 
> 
> #Top Perfroming product in MISC GENERAL MERCHANDISE product category
> topPerfromingProductsInGMCatg <- POS_TRANS %>%
+   inner_join(PROD_MASTER, by = 'PROD_NBR') %>%  
+   inner_join(PROD_SEG, by = c("SEGMENT_CD" = "SEG_CD")) %>%
+   inner_join(PROD_SUB_CAT, by = c("SUB_CAT_CD" = "SUB_CAT_CD")) %>%
+   inner_join(PROD_CAT, by = c("CAT_CD" = "CAT_CD")) %>%
+   filter(CAT_CD == '6300') %>%
+   group_by(PROD_NBR, PROD_DESC) %>%
+   summarise(salesRevenue = sum(SLS_QTY * EXT_SLS_AMT)) %>%
+   arrange(desc(salesRevenue))
> topPerfromingProductsInGMCatg
# A tibble: 56 x 3
# Groups:   PROD_NBR [56]
   PROD_NBR                PROD_DESC                      salesRevenue
   <chr>                   <chr>                                 <dbl>
 1 99100000770330000000003 MONEY ORDER                        1662010.
 2 91000000000             LOTTO                               480598.
 3 79936677762             GIFT CARD VISA $20-$500             426615.
 4 99100000234116000000009 MONEYGRAM                           263872.
 5 81460502007             INST LOTTERY 100X THE CASH $20      196360 
 6 81460502027             INST LOTTERY 50X THE CASH $10       157070 
 7 81460502031             INST LOTTERY CASH EXTRA $30         146970 
 8 118                     INST LOTTERY WIN FOR LIFE $1        137796 
 9 40015008683             INST LOTTERY $2.500 FRENZY $10      113030 
10 81460502017             INST LOTTERY ALL CASH MILL $20      108280 
# ... with 46 more rows
…
>  
> 
> #Are some products categories getting sold in greater quantities based on seasonality? 
> monthwiseSalesByProductMajorCat <- POS_TRANS %>%
+   inner_join(PROD_MASTER, by = 'PROD_NBR') %>%  
+   inner_join(PROD_SEG, by = c("SEGMENT_CD" = "SEG_CD")) %>%
+   inner_join(PROD_SUB_CAT, by = c("SUB_CAT_CD" = "SUB_CAT_CD")) %>%
+   inner_join(PROD_CAT, by = c("CAT_CD" = "CAT_CD")) %>%
+   inner_join(MAJOR_PROD_CAT, by = c("MAJOR_CAT_CD" = "MAJOR_CAT_CD")) %>%
+   mutate(saleMonth = format(as.Date(SLS_DTE), "%b"),saleMonthNum = format(as.Date(SLS_DTE), "%m"), saleYear = format(as.Date(SLS_DTE), "%Y")) %>%
+   group_by(saleYear, saleMonth, saleMonthNum, MAJOR_CAT_CD, MAJOR_CAT_DESC) %>%
+   summarise(monthlySaleValue = sum(SLS_QTY * EXT_SLS_AMT)) %>%
+   arrange(saleMonthNum, desc(monthlySaleValue))
> monthwiseSalesByProductMajorCat
# A tibble: 60 x 6
# Groups:   saleYear, saleMonth, saleMonthNum, MAJOR_CAT_CD [60]
   saleYear saleMonth saleMonthNum MAJOR_CAT_CD MAJOR_CAT_DESC      monthlySaleValue
   <chr>    <chr>     <chr>        <chr>        <chr>                          <dbl>
 1 2016     Jan       01           5228         HEALTH CARE                 1174734.
 2 2016     Jan       01           6137         GENERAL MERCHANDISE          978465.
 3 2016     Jan       01           3391         HOME HEALTH CARE             333261.
 4 2016     Jan       01           9687         GREETING CARDS               188172.
 5 2016     Jan       01           4371         EDIBLES                      127928.
 6 2016     Jan       01           7392         PERSONAL CARE                 97257.
 7 2016     Jan       01           7020         BEAUTY                        53762.
 8 2016     Jan       01           1941         PHOTO                         45177.
 9 2016     Jan       01           2343         DIABETES                      24997.
10 2016     Jan       01           5068         MISC                           3171.
# ... with 50 more rows
…
> # had highest sales revenue, so below we trying to indentify which products were having high sales revenue.
> highsellingProductInHealthCareCategoryInMarch <- POS_TRANS %>%
+   inner_join(PROD_MASTER, by = 'PROD_NBR') %>%  
+   inner_join(PROD_SEG, by = c("SEGMENT_CD" = "SEG_CD")) %>%
+   inner_join(PROD_SUB_CAT, by = c("SUB_CAT_CD" = "SUB_CAT_CD")) %>%
+   inner_join(PROD_CAT, by = c("CAT_CD" = "CAT_CD")) %>%
+   inner_join(MAJOR_PROD_CAT, by = c("MAJOR_CAT_CD" = "MAJOR_CAT_CD")) %>%
+   mutate(saleMonth = format(as.Date(SLS_DTE), "%b"),saleMonthNum = format(as.Date(SLS_DTE), "%m"), saleYear = format(as.Date(SLS_DTE), "%Y")) %>%
+   filter(saleMonthNum == '03') %>%
+   filter(MAJOR_CAT_CD == '5228') %>%
+   group_by(PROD_NBR, PROD_DESC) %>%
+   summarise(monthlySaleValue = sum(SLS_QTY * EXT_SLS_AMT)) %>%
+   arrange(desc(monthlySaleValue))
> highsellingProductInHealthCareCategoryInMarch
# A tibble: 5,648 x 3
# Groups:   PROD_NBR [5,648]
   PROD_NBR                PROD_DESC                                monthlySaleValue
   <chr>                   <chr>                                               <dbl>
 1 98650000000000185441572 STRUTZ PRO                                        486104.
 2 90800000000             VITAMINS/SUPPLEMENTS                              241267.
 3 1626                    TEGADERM 4X4 3/4 1626                             137635.
 4 3504600117              ACIDOPHILUS SUPER PROBIO 5BILLN CAP 60CT           54625.
 5 8770140446              GNP U/PAD SPR 30X36 PAD 4X10                       22785.
 6 64193220212             GLOVE VINYL P/F L/F MD GLV 100                     22020.
 7 34658170001             SALONPAS PATCH HOT CAPSICUM UNS 50X1CT              7035.
 8 70414200007             FLORASTOR 250MG CAPSULE 50CT                        5980.
 9 64193220213             GLOVE VINYL P/F L/F LG GLV 100                      5932.
10 30132070336             FLEET ENEMA BISACODYL 10MG/30ML 37ML                4898.
# ... with 5,638 more rows
…
